DATA;NOME DO PORTADOR;NUM. FUNCIONAL;NUMERO DO CARTAO;CONTA MAE;TIPO TRANSACAO;DESCRICAO;CRED/DEB;NOME DA MOEDA;COD MOEDA;RAMO DO ESTAB;LOCAL;VALOR DA TRANSACAO;VALOR EM DOLARES;VALOR EM REAIS;NOME DA COMPANHIA AEREA;NOME DO PASSAGEIRO;BILHETE1;BILHETE2;BILHETE3;BILHETE4;CODIGO IATA;CENTRO DE CUSTO;NUMERO DA AUTORIZACAO;CNPJ;
19/05/2016;CESAR L G LEMOS               ;28070          ;5529140000288444;0040000000045406587;NACIONAL;WINDSOR BARRA HOTEL    ;D; ; ;7011  ; ;10884.49; ;10884.49;                              ;                                        ;           ;           ;           ;           ;        ;2331           ;098954;000000000000000;
10/05/2016;DAVISON J FARAH SILVA         ;19797          ;5529140001683601;0040000000045406587;NACIONAL;GAIA RESTAURANTES      ;D; ; ;5812  ; ;5913.55; ;5913.55;                              ;                                        ;           ;           ;           ;           ;        ;2331           ;035139;000000000000000;
17/05/2016;DAVISON J FARAH SILVA         ;19797          ;5529140001683601;0040000000045406587;NACIONAL;BAROLLO MANAUS         ;D; ; ;5812  ; ;1921.70; ;1921.70;                              ;                                        ;           ;           ;           ;           ;        ;2331           ;077758;000000000000000;
24/05/2016;LUCIANA T FERMINO             ;311444         ;5529140001875272;0040000000045406587;NACIONAL;DOMUM CHEFF RESTAURANT ;D; ; ;5812  ; ;357.00; ;357.00;                              ;                                        ;           ;           ;           ;           ;        ;2331           ;050709;000000000000000;
10/05/2016;JOSE M C PEREIRA              ;22241          ;5529140001967715;0040000000045406587;NACIONAL;CABANA VIP             ;D; ; ;5812  ; ;380.60; ;380.60;                              ;                                        ;           ;           ;           ;           ;        ;2331           ;077848;000000000000000;
20/05/2016;JOSE M C PEREIRA              ;22241          ;5529140001967715;0040000000045406587;NACIONAL;KARLEY DA SILVA PAIVA  ;D; ; ;4789  ; ;4000.00; ;4000.00;                              ;                                        ;           ;           ;           ;           ;        ;2331           ;003141;000000000000000;
10/05/2016;ADRIANA C DE SOUZA            ;312070         ;5529140002018484;0040000000045406587;NACIONAL;RESTAURANTES DEL PRIMO ;D; ; ;5812  ; ;1356.30; ;1356.30;                              ;                                        ;           ;           ;           ;           ;        ;2331           ;071183;000000000000000;
25/05/2016;ADRIANA C DE SOUZA            ;312070         ;5529140002018484;0040000000045406587;NACIONAL;NAU FRUTOS DO MAR      ;D; ; ;5812  ; ;720.00; ;720.00;                              ;                                        ;           ;           ;           ;           ;        ;2331           ;016188;000000000000000;
09/05/2016;LUCIANA M FONSECA             ;301804         ;5529140003677627;0040000000045406587;NACIONAL;MR TUGA S              ;D; ; ;5812  ; ;360.00; ;360.00;                              ;                                        ;           ;           ;           ;           ;        ;2331           ;007108;000000000000000;
10/05/2016;LUCIANA M FONSECA             ;301804         ;5529140003677627;0040000000045406587;NACIONAL;CHIMARRON              ;D; ; ;5812  ; ;1494.20; ;1494.20;                              ;                                        ;           ;           ;           ;           ;        ;2331           ;090107;000000000000000;
17/05/2016;LUCIANA M FONSECA             ;301804         ;5529140003677627;0040000000045406587;NACIONAL;GRAFICA BARREIRO       ;D; ; ;5732  ; ;720.00; ;720.00;                              ;                                        ;           ;           ;           ;           ;        ;2331           ;034344;000000000000000;
19/05/2016;LUCIANA M FONSECA             ;301804         ;5529140003677627;0040000000045406587;NACIONAL;TULHA DU CHEF GASTRONO ;D; ; ;5812  ; ;998.55; ;998.55;                              ;                                        ;           ;           ;           ;           ;        ;2331           ;063855;000000000000000;
09/05/2016;EDIGELSON SCAPIN              ;37561          ;5529140004511866;0040000000045406587;NACIONAL;GRAFISUL               ;D; ; ;4789  ; ;360.00; ;360.00;                              ;                                        ;           ;           ;           ;           ;        ;2331           ;029748;000000000000000;
09/05/2016;EDIGELSON SCAPIN              ;37561          ;5529140004511866;0040000000045406587;NACIONAL;GRAFISUL               ;D; ; ;4789  ; ;359.00; ;359.00;                              ;                                        ;           ;           ;           ;           ;        ;2331           ;094154;000000000000000;
13/05/2016;EDIGELSON SCAPIN              ;37561          ;5529140004511866;0040000000045406587;NACIONAL;LA COLLINA             ;D; ; ;5812  ; ;360.00; ;360.00;                              ;                                        ;           ;           ;           ;           ;        ;2331           ;019420;000000000000000;
13/05/2016;EDIGELSON SCAPIN              ;37561          ;5529140004511866;0040000000045406587;NACIONAL;EDICOPY SOLUCOES GRAFI ;D; ; ;5732  ; ;359.90; ;359.90;                              ;                                        ;           ;           ;           ;           ;        ;2331           ;005899;000000000000000;
13/05/2016;EDIGELSON SCAPIN              ;37561          ;5529140004511866;0040000000045406587;NACIONAL;EDICOPY SOLUCOES GRAFI ;D; ; ;5732  ; ;359.80; ;359.80;                              ;                                        ;           ;           ;           ;           ;        ;2331           ;007019;000000000000000;
20/05/2016;EDIGELSON SCAPIN              ;37561          ;5529140004511866;0040000000045406587;NACIONAL;COISAS BOAS DELICATESS ;D; ; ;5921  ; ;360.00; ;360.00;                              ;                                        ;           ;           ;           ;           ;        ;2331           ;058367;000000000000000;
25/05/2016;EDIGELSON SCAPIN              ;37561          ;5529140004511866;0040000000045406587;NACIONAL;RECANTO PIZZARIA REST  ;D; ; ;5812  ; ;360.00; ;360.00;                              ;                                        ;           ;           ;           ;           ;        ;2331           ;023245;000000000000000;
03/05/2016;CHRISTIANE F OLIVEIRA         ;7991           ;5529140004666983;0040000000045406587;NACIONAL;LE PALMIER             ;D; ; ;5812  ; ;2520.00; ;2520.00;                              ;                                        ;           ;           ;           ;           ;        ;2331           ;064385;000000000000000;
04/05/2016;CHRISTIANE F OLIVEIRA         ;7991           ;5529140004666983;0040000000045406587;NACIONAL;MERCURE EXCELLENCE     ;D; ; ;7011  ; ;7035.50; ;7035.50;                              ;                                        ;           ;           ;           ;           ;        ;2331           ;012835;000000000000000;
12/05/2016;CHRISTIANE F OLIVEIRA         ;7991           ;5529140004666983;0040000000045406587;NACIONAL;BRACIA PARRILLA        ;D; ; ;5812  ; ;1891.00; ;1891.00;                              ;                                        ;           ;           ;           ;           ;        ;2331           ;086619;000000000000000;
17/05/2016;ROSANA SOUZA MAGALHAES        ;12876          ;5529140006019199;0040000000045406587;NACIONAL;CHURR VELHA NAPOLITANA ;D; ; ;5812  ; ;358.00; ;358.00;                              ;                                        ;           ;           ;           ;           ;        ;2331           ;043708;000000000000000;
18/05/2016;ROSANA SOUZA MAGALHAES        ;12876          ;5529140006019199;0040000000045406587;NACIONAL;CASA DA FRANCA         ;D; ; ;5411  ; ;360.00; ;360.00;                              ;                                        ;           ;           ;           ;           ;        ;2331           ;072310;000000000000000;
18/05/2016;ROSANA SOUZA MAGALHAES        ;12876          ;5529140006019199;0040000000045406587;NACIONAL;CASA DA FRANCA         ;D; ; ;5411  ; ;358.00; ;358.00;                              ;                                        ;           ;           ;           ;           ;        ;2331           ;078761;000000000000000;
18/05/2016;ROSANA SOUZA MAGALHAES        ;12876          ;5529140006019199;0040000000045406587;NACIONAL;CASA DA FRANCA         ;D; ; ;5411  ; ;359.00; ;359.00;                              ;                                        ;           ;           ;           ;           ;        ;2331           ;075586;000000000000000;
11/05/2016;ROSANA SOUZA MAGALHAES        ;12876          ;5529140006019199;0040000000045406587;NACIONAL;QUALITY CURITIBA       ;D; ; ;7011  ; ;5639.87; ;5639.87;                              ;                                        ;           ;           ;           ;           ;        ;2331           ;035144;000000000000000;
17/05/2016;ROSANA SOUZA MAGALHAES        ;12876          ;5529140006019199;0040000000045406587;NACIONAL;CHURR VELHA NAPOLITANA ;D; ; ;5812  ; ;360.00; ;360.00;                              ;                                        ;           ;           ;           ;           ;        ;2331           ;041195;000000000000000;
19/05/2016;ROSANA SOUZA MAGALHAES        ;12876          ;5529140006019199;0040000000045406587;NACIONAL;GRAFICA  IGUACU        ;D; ; ;4789  ; ;360.00; ;360.00;                              ;                                        ;           ;           ;           ;           ;        ;2331           ;037840;000000000000000;
19/05/2016;ROSANA SOUZA MAGALHAES        ;12876          ;5529140006019199;0040000000045406587;NACIONAL;GRAFICA  IGUACU        ;D; ; ;4789  ; ;359.00; ;359.00;                              ;                                        ;           ;           ;           ;           ;        ;2331           ;041091;000000000000000;
19/05/2016;ROSANA SOUZA MAGALHAES        ;12876          ;5529140006019199;0040000000045406587;NACIONAL;GRAFICA  IGUACU        ;D; ; ;4789  ; ;358.00; ;358.00;                              ;                                        ;           ;           ;           ;           ;        ;2331           ;057142;000000000000000;
04/05/2016;ERNESTO PAZELLO NETO          ;13038          ;5529140006488857;0040000000045406587;NACIONAL;PADARIA ESTRELA        ;D; ; ;5462  ; ;149.99; ;149.99;                              ;                                        ;           ;           ;           ;           ;        ;2331           ;007935;000000000000000;
19/05/2016;ERNESTO PAZELLO NETO          ;13038          ;5529140006488857;0040000000045406587;NACIONAL;EDITORA OFFSET         ;D; ; ;4789  ; ;720.00; ;720.00;                              ;                                        ;           ;           ;           ;           ;        ;2331           ;099616;000000000000000;
10/05/2016;JULIO C S OLIVEIRA            ;1105           ;5529140006673086;0040000000045406587;NACIONAL;LAREIRA UP             ;D; ; ;5812  ; ;1133.00; ;1133.00;                              ;                                        ;           ;           ;           ;           ;        ;2331           ;003059;000000000000000;
24/05/2016;RAUL LOPES FRANKLIN           ;311581         ;5529140007479640;0040000000045406587;NACIONAL;CRISTIANE LEMBO 042928 ;D; ; ;7999  ; ;240.00; ;240.00;                              ;                                        ;           ;           ;           ;           ;        ;2331           ;091875;000000000000000;
17/05/2016;RAUL LOPES FRANKLIN           ;311581         ;5529140007479640;0040000000045406587;NACIONAL;OLIVEIRA G A GRAF      ;D; ; ;5921  ; ;720.00; ;720.00;                              ;                                        ;           ;           ;           ;           ;        ;2331           ;003456;000000000000000;
17/05/2016;RAUL LOPES FRANKLIN           ;311581         ;5529140007479640;0040000000045406587;NACIONAL;OLIVEIRA G A GRAF      ;D; ; ;5921  ; ;1080.00; ;1080.00;                              ;                                        ;           ;           ;           ;           ;        ;2331           ;007364;000000000000000;
17/05/2016;RAUL LOPES FRANKLIN           ;311581         ;5529140007479640;0040000000045406587;NACIONAL;OLIVEIRA G A GRAF      ;D; ; ;5921  ; ;720.00; ;720.00;                              ;                                        ;           ;           ;           ;           ;        ;2331           ;007963;000000000000000;
18/05/2016;RAUL LOPES FRANKLIN           ;311581         ;5529140007479640;0040000000045406587;NACIONAL;VERDANNA GRILL         ;D; ; ;5811  ; ;307.12; ;307.12;                              ;                                        ;           ;           ;           ;           ;        ;2331           ;074648;000000000000000;
20/05/2016;RAUL LOPES FRANKLIN           ;311581         ;5529140007479640;0040000000045406587;NACIONAL;REST PALANCA NEGRA     ;D; ; ;5812  ; ;173.00; ;173.00;                              ;                                        ;           ;           ;           ;           ;        ;2331           ;052815;000000000000000;
24/05/2016;RAUL LOPES FRANKLIN           ;311581         ;5529140007479640;0040000000045406587;NACIONAL;BARDOT VINHOS E ARTES  ;D; ; ;5732  ; ;1080.00; ;1080.00;                              ;                                        ;           ;           ;           ;           ;        ;2331           ;014595;000000000000000;
24/05/2016;RAUL LOPES FRANKLIN           ;311581         ;5529140007479640;0040000000045406587;NACIONAL;BARDOT VINHOS E ARTES  ;D; ; ;5732  ; ;720.00; ;720.00;                              ;                                        ;           ;           ;           ;           ;        ;2331           ;032958;000000000000000;
24/05/2016;RAUL LOPES FRANKLIN           ;311581         ;5529140007479640;0040000000045406587;NACIONAL;CRISTIANE LEMBO 042928 ;D; ; ;7999  ; ;360.00; ;360.00;                              ;                                        ;           ;           ;           ;           ;        ;2331           ;079324;000000000000000;
24/05/2016;RAUL LOPES FRANKLIN           ;311581         ;5529140007479640;0040000000045406587;NACIONAL;CRISTIANE LEMBO 042928 ;D; ; ;7999  ; ;180.00; ;180.00;                              ;                                        ;           ;           ;           ;           ;        ;2331           ;084605;000000000000000;
11/05/2016;JOAO A P B OLIVEIRA           ;25870          ;5529140008038569;0040000000045406587;NACIONAL;BBOCA S ALIMENTOS LTDA ;D; ; ;5812  ; ;1440.00; ;1440.00;                              ;                                        ;           ;           ;           ;           ;        ;2331           ;016335;000000000000000;
27/05/2016;JOAO A P B OLIVEIRA           ;25870          ;5529140008038569;0040000000045406587;NACIONAL;WINDSOR PLAZA HOTEL    ;D; ; ;7011  ; ;8933.21; ;8933.21;                              ;                                        ;           ;           ;           ;           ;        ;2331           ;074960;000000000000000;
02/05/2016;JOAO A P B OLIVEIRA           ;25870          ;5529140008038569;0040000000045406587;NACIONAL;HOTEL PRAIA IPANEMA    ;D; ; ;7011  ; ;15800.00; ;15800.00;                              ;                                        ;           ;           ;           ;           ;        ;2331           ;064942;000000000000000;
04/05/2016;JOAO A P B OLIVEIRA           ;25870          ;5529140008038569;0040000000045406587;NACIONAL;DOCTOR PRINT           ;D; ; ;5411  ; ;690.00; ;690.00;                              ;                                        ;           ;           ;           ;           ;        ;2331           ;009734;000000000000000;
06/05/2016;JOAO A P B OLIVEIRA           ;25870          ;5529140008038569;0040000000045406587;NACIONAL;BARRA BAKERY           ;D; ; ;5462  ; ;720.00; ;720.00;                              ;                                        ;           ;           ;           ;           ;        ;2331           ;049314;000000000000000;
06/05/2016;JOAO A P B OLIVEIRA           ;25870          ;5529140008038569;0040000000045406587;NACIONAL;HOTEL PRAIA IPANEMA    ;D; ; ;7011  ; ;412.00; ;412.00;                              ;                                        ;           ;           ;           ;           ;        ;2331           ;007425;000000000000000;
23/05/2016;LUCAS MENDES RODRIGUES        ;311572         ;5529140008566742;0040000000045406587;NACIONAL;SANTA BRIGIDA          ;D; ; ;5411  ; ;360.00; ;360.00;                              ;                                        ;           ;           ;           ;           ;        ;2331           ;075555;000000000000000;
24/05/2016;LUCAS MENDES RODRIGUES        ;311572         ;5529140008566742;0040000000045406587;NACIONAL;LAYOUT GRAFICA RAPIDA  ;D; ; ;4789  ; ;360.00; ;360.00;                              ;                                        ;           ;           ;           ;           ;        ;2331           ;097407;000000000000000;
23/05/2016;RODRIGO BRANDO SOUZA          ;311526         ;5529140010473895;0040000000045406587;NACIONAL;BETEL                  ;D; ; ;5462  ; ;360.00; ;360.00;                              ;                                        ;           ;           ;           ;           ;        ;2331           ;051061;000000000000000;
19/05/2016;CARLOS C L OLIVEIRA           ;26789          ;5529140010683949;0040000000045406587;NACIONAL;ANGELA MARA PINTO DOMI ;D; ; ;5441  ; ;1440.00; ;1440.00;                              ;                                        ;           ;           ;           ;           ;        ;2331           ;078264;000000000000000;
19/05/2016;CARLOS C L OLIVEIRA           ;26789          ;5529140010683949;0040000000045406587;NACIONAL;IMPERIO DOS LANCHES LT ;D; ; ;5812  ; ;360.00; ;360.00;                              ;                                        ;           ;           ;           ;           ;        ;2331           ;065733;000000000000000;
20/05/2016;CARLOS C L OLIVEIRA           ;26789          ;5529140010683949;0040000000045406587;NACIONAL;DOCARIA VIENENSE       ;D; ; ;5411  ; ;360.00; ;360.00;                              ;                                        ;           ;           ;           ;           ;        ;2331           ;045291;000000000000000;
20/05/2016;CARLOS C L OLIVEIRA           ;26789          ;5529140010683949;0040000000045406587;NACIONAL;PAO E VINHO            ;D; ; ;5462  ; ;359.99; ;359.99;                              ;                                        ;           ;           ;           ;           ;        ;2331           ;011275;000000000000000;
23/05/2016;CARLOS C L OLIVEIRA           ;26789          ;5529140010683949;0040000000045406587;NACIONAL;PADARIA NOSSA          ;D; ; ;5462  ; ;360.00; ;360.00;                              ;                                        ;           ;           ;           ;           ;        ;2331           ;097929;000000000000000;
20/05/2016;HERMES DA ROSA PINTO          ;308056         ;5529140014792381;0040000000045406587;NACIONAL;CHOCOLATE ALASKA       ;D; ; ;5411  ; ;355.20; ;355.20;                              ;                                        ;           ;           ;           ;           ;        ;2331           ;075131;000000000000000;
23/05/2016;HERMES DA ROSA PINTO          ;308056         ;5529140014792381;0040000000045406587;NACIONAL;DDR RESTAURANTE        ;D; ; ;5812  ; ;355.00; ;355.00;                              ;                                        ;           ;           ;           ;           ;        ;2331           ;012147;000000000000000;
06/05/2016;HERMES DA ROSA PINTO          ;308056         ;5529140014792381;0040000000045406587;NACIONAL;MERCURE MANHATTAN      ;D; ; ;7011  ; ;5617.00; ;5617.00;                              ;                                        ;           ;           ;           ;           ;        ;2331           ;032393;000000000000000;
12/05/2016;HERMES DA ROSA PINTO          ;308056         ;5529140014792381;0040000000045406587;NACIONAL;DDR RESTAURANTE        ;D; ; ;5812  ; ;356.00; ;356.00;                              ;                                        ;           ;           ;           ;           ;        ;2331           ;027673;000000000000000;
12/05/2016;HERMES DA ROSA PINTO          ;308056         ;5529140014792381;0040000000045406587;NACIONAL;DDR RESTAURANTE        ;D; ; ;5812  ; ;357.00; ;357.00;                              ;                                        ;           ;           ;           ;           ;        ;2331           ;024186;000000000000000;
12/05/2016;HERMES DA ROSA PINTO          ;308056         ;5529140014792381;0040000000045406587;NACIONAL;DDR RESTAURANTE        ;D; ; ;5812  ; ;358.00; ;358.00;                              ;                                        ;           ;           ;           ;           ;        ;2331           ;021703;000000000000000;
12/05/2016;HERMES DA ROSA PINTO          ;308056         ;5529140014792381;0040000000045406587;NACIONAL;DDR RESTAURANTE        ;D; ; ;5812  ; ;360.00; ;360.00;                              ;                                        ;           ;           ;           ;           ;        ;2331           ;032015;000000000000000;
17/05/2016;HERMES DA ROSA PINTO          ;308056         ;5529140014792381;0040000000045406587;NACIONAL;MUNDO GRAFICO          ;D; ; ;4789  ; ;358.00; ;358.00;                              ;                                        ;           ;           ;           ;           ;        ;2331           ;077343;000000000000000;
17/05/2016;HERMES DA ROSA PINTO          ;308056         ;5529140014792381;0040000000045406587;NACIONAL;VICIO DOCE             ;D; ; ;5441  ; ;369.00; ;369.00;                              ;                                        ;           ;           ;           ;           ;        ;2331           ;056192;000000000000000;
17/05/2016;HERMES DA ROSA PINTO          ;308056         ;5529140014792381;0040000000045406587;NACIONAL;RESTAURANTE PERMANGIAR ;D; ; ;5812  ; ;359.90; ;359.90;                              ;                                        ;           ;           ;           ;           ;        ;2331           ;032675;000000000000000;
09/05/2016;RODRIGO F VIEIRA              ;311575         ;5529140015038214;0040000000045406587;NACIONAL;TIPOGRAFIA TAMOIO      ;D; ; ;5943  ; ;200.00; ;200.00;                              ;                                        ;           ;           ;           ;           ;        ;2331           ;085837;000000000000000;
20/05/2016;RODRIGO F VIEIRA              ;311575         ;5529140015038214;0040000000045406587;NACIONAL;MR TUGA S              ;D; ; ;5812  ; ;360.00; ;360.00;                              ;                                        ;           ;           ;           ;           ;        ;2331           ;047397;000000000000000;
23/05/2016;RODRIGO F VIEIRA              ;311575         ;5529140015038214;0040000000045406587;NACIONAL;THE BEST PAO           ;D; ; ;5462  ; ;360.00; ;360.00;                              ;                                        ;           ;           ;           ;           ;        ;2331           ;047914;000000000000000;
04/05/2016;MAURICIO F GODOY              ;26494          ;5529140016485950;0040000000045406587;NACIONAL;JETGRAF                ;D; ; ;5732  ; ;360.00; ;360.00;                              ;                                        ;           ;           ;           ;           ;        ;2331           ;026182;000000000000000;
04/05/2016;MAURICIO F GODOY              ;26494          ;5529140016485950;0040000000045406587;NACIONAL;JETGRAF                ;D; ; ;5732  ; ;360.00; ;360.00;                              ;                                        ;           ;           ;           ;           ;        ;2331           ;070209;000000000000000;
05/05/2016;MAURICIO F GODOY              ;26494          ;5529140016485950;0040000000045406587;NACIONAL;SAL E GRILL            ;D; ; ;5812  ; ;1763.89; ;1763.89;                              ;                                        ;           ;           ;           ;           ;        ;2331           ;019835;000000000000000;
10/05/2016;MAURICIO F GODOY              ;26494          ;5529140016485950;0040000000045406587;NACIONAL;PAGSEGUROUOL*SAGAEVENT ;D; ; ;4789  ; ;385.00; ;385.00;                              ;                                        ;           ;           ;           ;           ;        ;2331           ;034328;000000000000000;
29/04/2016;MAURICIO F GODOY              ;26494          ;5529140016485950;0040000000045406587;NACIONAL;VITORIA HOTEL          ;D; ; ;7011  ; ;4609.60; ;4609.60;                              ;                                        ;           ;           ;           ;           ;        ;2331           ;080149;000000000000000;
29/04/2016;MAURICIO F GODOY              ;26494          ;5529140016485950;0040000000045406587;NACIONAL;VITORIA HOTEL          ;D; ; ;7011  ; ;2844.86; ;2844.86;                              ;                                        ;           ;           ;           ;           ;        ;2331           ;095663;000000000000000;
03/05/2016;MAURICIO F GODOY              ;26494          ;5529140016485950;0040000000045406587;NACIONAL;PAES DOCES 9 DE JULHO  ;D; ; ;5812  ; ;359.75; ;359.75;                              ;                                        ;           ;           ;           ;           ;        ;2331           ;032033;000000000000000;
03/05/2016;MAURICIO F GODOY              ;26494          ;5529140016485950;0040000000045406587;NACIONAL;PAES DOCES 9 DE JULHO  ;D; ; ;5812  ; ;359.75; ;359.75;                              ;                                        ;           ;           ;           ;           ;        ;2331           ;038365;000000000000000;
03/05/2016;MAURICIO F GODOY              ;26494          ;5529140016485950;0040000000045406587;NACIONAL;PAES DOCES 9 DE JULHO  ;D; ; ;5812  ; ;199.55; ;199.55;                              ;                                        ;           ;           ;           ;           ;        ;2331           ;026637;000000000000000;
04/05/2016;MAURICIO F GODOY              ;26494          ;5529140016485950;0040000000045406587;NACIONAL;FINO GRAO              ;D; ; ;5462  ; ;500.00; ;500.00;                              ;                                        ;           ;           ;           ;           ;        ;2331           ;029139;000000000000000;
04/05/2016;MAURICIO F GODOY              ;26494          ;5529140016485950;0040000000045406587;NACIONAL;JETGRAF                ;D; ; ;5732  ; ;359.50; ;359.50;                              ;                                        ;           ;           ;           ;           ;        ;2331           ;024027;000000000000000;
11/05/2016;MAURICIO F GODOY              ;26494          ;5529140016485950;0040000000045406587;NACIONAL;PAGSEGURO*ExtraPrinter ;D; ; ;4789  ; ;200.00; ;200.00;                              ;                                        ;           ;           ;           ;           ;        ;2331           ;007043;000000000000000;
11/05/2016;MAURICIO F GODOY              ;26494          ;5529140016485950;0040000000045406587;NACIONAL;VITORIA BELINE KINDAI  ;D; ; ;7011  ; ;6048.00; ;6048.00;                              ;                                        ;           ;           ;           ;           ;        ;2331           ;016636;000000000000000;
11/05/2016;MAURICIO F GODOY              ;26494          ;5529140016485950;0040000000045406587;NACIONAL;VITORIA BELINE KINDAI  ;D; ; ;7011  ; ;2923.30; ;2923.30;                              ;                                        ;           ;           ;           ;           ;        ;2331           ;028912;000000000000000;
23/05/2016;LOURIVALDO F SILVA            ;309052         ;5529140018199930;0040000000045406587;NACIONAL;CABANA DEL PRIMO       ;D; ; ;5812  ; ;1080.00; ;1080.00;                              ;                                        ;           ;           ;           ;           ;        ;2331           ;009072;000000000000000;
23/05/2016;LOURIVALDO F SILVA            ;309052         ;5529140018199930;0040000000045406587;NACIONAL;CABANA DEL PRIMO       ;D; ; ;5812  ; ;1080.00; ;1080.00;                              ;                                        ;           ;           ;           ;           ;        ;2331           ;016117;000000000000000;
10/05/2016;MARCO EVANDRO MELO            ;27084          ;5529140018984786;0040000000045406587;NACIONAL;PAO DE QUEJO MINEIRO   ;D; ; ;5462  ; ;349.50; ;349.50;                              ;                                        ;           ;           ;           ;           ;        ;2331           ;065858;000000000000000;
11/05/2016;MARCO EVANDRO MELO            ;27084          ;5529140018984786;0040000000045406587;NACIONAL;MERCURE EXCELLENCE     ;D; ; ;7011  ; ;5878.20; ;5878.20;                              ;                                        ;           ;           ;           ;           ;        ;2331           ;008316;000000000000000;
17/05/2016;MARCO EVANDRO MELO            ;27084          ;5529140018984786;0040000000045406587;NACIONAL;PADARIA CRISTAL        ;D; ; ;5462  ; ;2154.50; ;2154.50;                              ;                                        ;           ;           ;           ;           ;        ;2331           ;085397;000000000000000;
24/05/2016;JEFFERSON GABRIEL             ;14456          ;5529140019425078;0040000000045406587;NACIONAL;GRAFICA IMPRESSAO      ;D; ; ;5943  ; ;360.00; ;360.00;                              ;                                        ;           ;           ;           ;           ;        ;2331           ;062355;000000000000000;
04/05/2016;JEFFERSON GABRIEL             ;14456          ;5529140019425078;0040000000045406587;NACIONAL;RESTAURENTE TANADE     ;D; ; ;5921  ; ;357.70; ;357.70;                              ;                                        ;           ;           ;           ;           ;        ;2331           ;077008;000000000000000;
05/05/2016;JEFFERSON GABRIEL             ;14456          ;5529140019425078;0040000000045406587;NACIONAL;HACHIMITSU             ;D; ; ;5441  ; ;357.00; ;357.00;                              ;                                        ;           ;           ;           ;           ;        ;2331           ;048125;000000000000000;
05/05/2016;JEFFERSON GABRIEL             ;14456          ;5529140019425078;0040000000045406587;NACIONAL;HACHIMITSU ATELIER DE  ;D; ; ;5462  ; ;357.00; ;357.00;                              ;                                        ;           ;           ;           ;           ;        ;2331           ;051695;000000000000000;
13/05/2016;JEFFERSON GABRIEL             ;14456          ;5529140019425078;0040000000045406587;NACIONAL;MARCOS                 ;D; ; ;5462  ; ;360.00; ;360.00;                              ;                                        ;           ;           ;           ;           ;        ;2331           ;018953;000000000000000;
13/05/2016;JEFFERSON GABRIEL             ;14456          ;5529140019425078;0040000000045406587;NACIONAL;MARCO S BOUTIQUE DE PA ;D; ; ;5441  ; ;360.00; ;360.00;                              ;                                        ;           ;           ;           ;           ;        ;2331           ;020889;000000000000000;
18/05/2016;JEFFERSON GABRIEL             ;14456          ;5529140019425078;0040000000045406587;NACIONAL;M C COPIAS             ;D; ; ;5942  ; ;200.00; ;200.00;                              ;                                        ;           ;           ;           ;           ;        ;2331           ;094547;000000000000000;
24/05/2016;JEFFERSON GABRIEL             ;14456          ;5529140019425078;0040000000045406587;NACIONAL;PANIFICADORA ALVORADA  ;D; ; ;5462  ; ;359.90; ;359.90;                              ;                                        ;           ;           ;           ;           ;        ;2331           ;027295;000000000000000;
16/05/2016;EMS S A                       ;0000000000     ;5529140019456115;0040000000045406587;NACIONAL;PAGAMENTO EFETUADO 6773;C; ; ;6300  ; ;177711.31; ;177711.31;                              ;                                        ;           ;           ;           ;           ;        ;ZZZ SEM C.CUSTO;     0;000000000000000;
09/05/2016;CAMILA J MARTINS              ;24562          ;5529140019457352;0040000000045406587;NACIONAL;GRAFICA ACTIVA         ;D; ; ;5732  ; ;1080.00; ;1080.00;                              ;                                        ;           ;           ;           ;           ;        ;2331           ;050121;000000000000000;
12/05/2016;CAMILA J MARTINS              ;24562          ;5529140019457352;0040000000045406587;NACIONAL;NOVILHO DE PRATA       ;D; ; ;5812  ; ;910.00; ;910.00;                              ;                                        ;           ;           ;           ;           ;        ;2331           ;097772;000000000000000;
03/05/2016;CAMILA J MARTINS              ;24562          ;5529140019457352;0040000000045406587;NACIONAL;ORQUIDEA PEROLA        ;D; ; ;5462  ; ;709.30; ;709.30;                              ;                                        ;           ;           ;           ;           ;        ;2331           ;073139;000000000000000;
03/05/2016;CAMILA J MARTINS              ;24562          ;5529140019457352;0040000000045406587;NACIONAL;ORQUIDEA PEROLA        ;D; ; ;5462  ; ;716.60; ;716.60;                              ;                                        ;           ;           ;           ;           ;        ;2331           ;071705;000000000000000;
05/05/2016;CAMILA J MARTINS              ;24562          ;5529140019457352;0040000000045406587;NACIONAL;MARIA PHILO PADARIA    ;D; ; ;5462  ; ;300.00; ;300.00;                              ;                                        ;           ;           ;           ;           ;        ;2331           ;016508;000000000000000;
05/05/2016;CAMILA J MARTINS              ;24562          ;5529140019457352;0040000000045406587;NACIONAL;MARIA PHILO PADARIA    ;D; ; ;5462  ; ;1080.00; ;1080.00;                              ;                                        ;           ;           ;           ;           ;        ;2331           ;017881;000000000000000;
09/05/2016;CAMILA J MARTINS              ;24562          ;5529140019457352;0040000000045406587;NACIONAL;GRAFICA ACTIVA         ;D; ; ;5732  ; ;720.00; ;720.00;                              ;                                        ;           ;           ;           ;           ;        ;2331           ;089252;000000000000000;
09/05/2016;CAMILA J MARTINS              ;24562          ;5529140019457352;0040000000045406587;NACIONAL;GRAFICA ACTIVA         ;D; ; ;5732  ; ;1800.00; ;1800.00;                              ;                                        ;           ;           ;           ;           ;        ;2331           ;095496;000000000000000;
10/05/2016;ALISSON VIEIRA DE MORAES      ;32787          ;5529140240488549;0040000000045406587;NACIONAL;DIVINO BAR CAFE        ;D; ; ;5812  ; ;1699.06; ;1699.06;                              ;                                        ;           ;           ;           ;           ;        ;ZZZ SEM C.CUSTO;034569;000000000000000;
12/05/2016;ALISSON VIEIRA DE MORAES      ;32787          ;5529140240488549;0040000000045406587;NACIONAL;BENKENDORFF KAFFEE     ;D; ; ;5462  ; ;358.00; ;358.00;                              ;                                        ;           ;           ;           ;           ;        ;ZZZ SEM C.CUSTO;091568;000000000000000;
24/05/2016;ALISSON VIEIRA DE MORAES      ;32787          ;5529140240488549;0040000000045406587;NACIONAL;PONTO DO PAO           ;D; ; ;5462  ; ;360.00; ;360.00;                              ;                                        ;           ;           ;           ;           ;        ;ZZZ SEM C.CUSTO;043698;000000000000000;
11/05/2016;LUIZ OLIMPIO LIVRAMENTO       ;0000000000     ;5529140241396121;0040000000045406587;NACIONAL;NESTOR SCHUTZ  ME      ;D; ; ;5813  ; ;360.00; ;360.00;                              ;                                        ;           ;           ;           ;           ;        ;ZZZ SEM C.CUSTO;000613;000000000000000;
18/05/2016;PETERSON SCHUMACKER           ;0000000000     ;5529140241547434;0040000000045406587;NACIONAL;COLOR GRAF EXPRESS     ;D; ; ;5732  ; ;720.00; ;720.00;                              ;                                        ;           ;           ;           ;           ;        ;ZZZ SEM C.CUSTO;038480;000000000000000;
11/05/2016;SAMUEL FERNANDES MAMEDE       ;34445          ;5529140246251933;0040000000045406587;NACIONAL;BLOCO C                ;D; ; ;5812  ; ;338.71; ;338.71;                              ;                                        ;           ;           ;           ;           ;        ;ZZZ SEM C.CUSTO;075577;000000000000000;
25/05/2016;SAMUEL FERNANDES MAMEDE       ;34445          ;5529140246251933;0040000000045406587;NACIONAL;PAES E VINHOS          ;D; ; ;5462  ; ;166.60; ;166.60;                              ;                                        ;           ;           ;           ;           ;        ;ZZZ SEM C.CUSTO;089059;000000000000000;
20/05/2016;MARIA CAROLINA DE CILLO MULLER;0000000000     ;5529140246300573;0040000000045406587;NACIONAL;RLP ARTES GRAFICAS     ;D; ; ;5732  ; ;360.00; ;360.00;                              ;                                        ;           ;           ;           ;           ;        ;ZZZ SEM C.CUSTO;054991;000000000000000;
13/05/2016;CATIUCE MENEGONI BARCELLOS    ;0000000000     ;5529140246330562;0040000000045406587;NACIONAL;RESTAURANTE CHU        ;D; ; ;5812  ; ;1461.50; ;1461.50;                              ;                                        ;           ;           ;           ;           ;        ;ZZZ SEM C.CUSTO;088308;000000000000000;
29/04/2016;LUCIVANIA VIEIRA CRUZ         ;39786          ;5529140246349315;0040000000045406587;NACIONAL;LANCHONETE C LTDA ME   ;D; ; ;5812  ; ;360.00; ;360.00;                              ;                                        ;           ;           ;           ;           ;        ;ZZZ SEM C.CUSTO;011083;000000000000000;
06/05/2016;LUCIVANIA VIEIRA CRUZ         ;39786          ;5529140246349315;0040000000045406587;NACIONAL;GRAFICA TIBOL          ;D; ; ;5732  ; ;360.00; ;360.00;                              ;                                        ;           ;           ;           ;           ;        ;ZZZ SEM C.CUSTO;018282;000000000000000;
18/05/2016;LUCIVANIA VIEIRA CRUZ         ;39786          ;5529140246349315;0040000000045406587;NACIONAL;NOVA CHARM             ;D; ; ;5462  ; ;360.00; ;360.00;                              ;                                        ;           ;           ;           ;           ;        ;ZZZ SEM C.CUSTO;097126;000000000000000;
25/05/2016;LUCIVANIA VIEIRA CRUZ         ;39786          ;5529140246349315;0040000000045406587;NACIONAL;LANCHONETE C LTDA ME   ;D; ; ;5812  ; ;720.00; ;720.00;                              ;                                        ;           ;           ;           ;           ;        ;ZZZ SEM C.CUSTO;019624;000000000000000;
27/05/2016;ELIAS JORGE MIRANDA           ;42094          ;5529140246700590;0040000000045406587;NACIONAL;EMPORIO SIRIO LIBANES  ;D; ; ;5411  ; ;360.00; ;360.00;                              ;                                        ;           ;           ;           ;           ;        ;ZZZ SEM C.CUSTO;011360;000000000000000;
27/05/2016;ELIAS JORGE MIRANDA           ;42094          ;5529140246700590;0040000000045406587;NACIONAL;EMPORIO SIRIO LIBANES  ;D; ; ;5411  ; ;360.00; ;360.00;                              ;                                        ;           ;           ;           ;           ;        ;ZZZ SEM C.CUSTO;042849;000000000000000;
27/05/2016;ELIAS JORGE MIRANDA           ;42094          ;5529140246700590;0040000000045406587;NACIONAL;EMPORIO SIRIO LIBANES  ;D; ; ;5411  ; ;350.00; ;350.00;                              ;                                        ;           ;           ;           ;           ;        ;ZZZ SEM C.CUSTO;070705;000000000000000;
27/05/2016;ELIAS JORGE MIRANDA           ;42094          ;5529140246700590;0040000000045406587;NACIONAL;EMPORIO SIRIO LIBANES  ;D; ; ;5411  ; ;350.00; ;350.00;                              ;                                        ;           ;           ;           ;           ;        ;ZZZ SEM C.CUSTO;068192;000000000000000;
27/05/2016;ELIAS JORGE MIRANDA           ;42094          ;5529140246700590;0040000000045406587;NACIONAL;EMPORIO SIRIO LIBANES  ;D; ; ;5411  ; ;360.00; ;360.00;                              ;                                        ;           ;           ;           ;           ;        ;ZZZ SEM C.CUSTO;079145;000000000000000;
03/05/2016;STEFANIE LOPES ARLIANI        ;34713          ;5529140248633021;0040000000045406587;NACIONAL;MORA BAR RESTAURANTE   ;D; ; ;5812  ; ;360.00; ;360.00;                              ;                                        ;           ;           ;           ;           ;        ;ZZZ SEM C.CUSTO;041092;000000000000000;
06/05/2016;STEFANIE LOPES ARLIANI        ;34713          ;5529140248633021;0040000000045406587;NACIONAL;ENOTECA ALPHAVILLE     ;D; ; ;5411  ; ;360.00; ;360.00;                              ;                                        ;           ;           ;           ;           ;        ;ZZZ SEM C.CUSTO;016104;000000000000000;
10/05/2016;STEFANIE LOPES ARLIANI        ;34713          ;5529140248633021;0040000000045406587;NACIONAL;MERCEARIA DO FRANCES   ;D; ; ;5812  ; ;360.00; ;360.00;                              ;                                        ;           ;           ;           ;           ;        ;ZZZ SEM C.CUSTO;049479;000000000000000;
10/05/2016;STEFANIE LOPES ARLIANI        ;34713          ;5529140248633021;0040000000045406587;NACIONAL;GRAFICA ACTIVA         ;D; ; ;5732  ; ;360.00; ;360.00;                              ;                                        ;           ;           ;           ;           ;        ;ZZZ SEM C.CUSTO;068117;000000000000000;
11/05/2016;STEFANIE LOPES ARLIANI        ;34713          ;5529140248633021;0040000000045406587;NACIONAL;OSAKA                  ;D; ; ;5812  ; ;300.00; ;300.00;                              ;                                        ;           ;           ;           ;           ;        ;ZZZ SEM C.CUSTO;067588;000000000000000;
11/05/2016;STEFANIE LOPES ARLIANI        ;34713          ;5529140248633021;0040000000045406587;NACIONAL;CAFE E DOCERIA DAMASO  ;D; ; ;5812  ; ;360.00; ;360.00;                              ;                                        ;           ;           ;           ;           ;        ;ZZZ SEM C.CUSTO;041438;000000000000000;
16/05/2016;STEFANIE LOPES ARLIANI        ;34713          ;5529140248633021;0040000000045406587;NACIONAL;PADARIA LA VILLE       ;D; ; ;5812  ; ;358.60; ;358.60;                              ;                                        ;           ;           ;           ;           ;        ;ZZZ SEM C.CUSTO;016481;000000000000000;
17/05/2016;STEFANIE LOPES ARLIANI        ;34713          ;5529140248633021;0040000000045406587;NACIONAL;PADARIA REQUINTE       ;D; ; ;5462  ; ;360.00; ;360.00;                              ;                                        ;           ;           ;           ;           ;        ;ZZZ SEM C.CUSTO;067972;000000000000000;
18/05/2016;STEFANIE LOPES ARLIANI        ;34713          ;5529140248633021;0040000000045406587;NACIONAL;MORADA DOS PAES        ;D; ; ;5921  ; ;360.00; ;360.00;                              ;                                        ;           ;           ;           ;           ;        ;ZZZ SEM C.CUSTO;037901;000000000000000;
18/05/2016;STEFANIE LOPES ARLIANI        ;34713          ;5529140248633021;0040000000045406587;NACIONAL;CHOCOLATES ARIANE      ;D; ; ;5411  ; ;360.00; ;360.00;                              ;                                        ;           ;           ;           ;           ;        ;ZZZ SEM C.CUSTO;077568;000000000000000;
19/05/2016;STEFANIE LOPES ARLIANI        ;34713          ;5529140248633021;0040000000045406587;NACIONAL;DINHO S PLACE          ;D; ; ;5812  ; ;660.00; ;660.00;                              ;                                        ;           ;           ;           ;           ;        ;ZZZ SEM C.CUSTO;074394;000000000000000;
24/05/2016;JEFERSON LUIS KICHILESKI      ;0000000000     ;5529140249061339;0040000000045406587;NACIONAL;PANIFICADORA DA MARIA  ;D; ; ;5462  ; ;360.00; ;360.00;                              ;                                        ;           ;           ;           ;           ;        ;ZZZ SEM C.CUSTO;082321;000000000000000;
24/05/2016;JEFERSON LUIS KICHILESKI      ;0000000000     ;5529140249061339;0040000000045406587;NACIONAL;MARIA AP DA SILVA CONF ;D; ; ;5462  ; ;360.00; ;360.00;                              ;                                        ;           ;           ;           ;           ;        ;ZZZ SEM C.CUSTO;084082;000000000000000;
24/05/2016;CAROLINE GUERRA DONATO APOLONI;0000000000     ;5529140249569638;0040000000045406587;NACIONAL;CASA DA COPIA LTDA     ;D; ; ;5732  ; ;168.00; ;168.00;                              ;                                        ;           ;           ;           ;           ;        ;ZZZ SEM C.CUSTO;027062;000000000000000;
19/05/2016;CRISTIAN G LEMOS DE SOUZA     ;42204          ;5529140251324849;0040000000045406587;NACIONAL;PADARIA GLOBO          ;D; ; ;5462  ; ;179.98; ;179.98;                              ;                                        ;           ;           ;           ;           ;        ;ZZZ SEM C.CUSTO;099717;000000000000000;
19/05/2016;CRISTIAN G LEMOS DE SOUZA     ;42204          ;5529140251324849;0040000000045406587;NACIONAL;PADARIA TIA ELIANA     ;D; ; ;5462  ; ;180.00; ;180.00;                              ;                                        ;           ;           ;           ;           ;        ;ZZZ SEM C.CUSTO;017939;000000000000000;
25/05/2016;JULIANE CAROLINE KLEIN        ;0000000000     ;5529140252092155;0040000000045406587;NACIONAL;IMRECOLOR              ;D; ; ;4789  ; ;360.00; ;360.00;                              ;                                        ;           ;           ;           ;           ;        ;ZZZ SEM C.CUSTO;029737;000000000000000;
25/05/2016;JULIANE CAROLINE KLEIN        ;0000000000     ;5529140252092155;0040000000045406587;NACIONAL;IMRECOLOR              ;D; ; ;4789  ; ;350.00; ;350.00;                              ;                                        ;           ;           ;           ;           ;        ;ZZZ SEM C.CUSTO;030295;000000000000000;
09/05/2016;ANA PAULA LANCINI DA SILVA    ;0000000000     ;5529140252289371;0040000000045406587;NACIONAL;VO EDI                 ;D; ; ;5411  ; ;359.92; ;359.92;                              ;                                        ;           ;           ;           ;           ;        ;ZZZ SEM C.CUSTO;064585;000000000000000;
09/05/2016;ANA PAULA LANCINI DA SILVA    ;0000000000     ;5529140252289371;0040000000045406587;NACIONAL;VO EDI                 ;D; ; ;5411  ; ;360.00; ;360.00;                              ;                                        ;           ;           ;           ;           ;        ;ZZZ SEM C.CUSTO;061928;000000000000000;
13/05/2016;PAULO RICARDO BRESSANIM       ;42529          ;5529140253462712;0040000000045406587;NACIONAL;JOSE H. G. DE OLIVEIRA ;D; ; ;4789  ; ;360.00; ;360.00;                              ;                                        ;           ;           ;           ;           ;        ;ZZZ SEM C.CUSTO;098743;000000000000000;
06/05/2016;MARCO AURELIO CUSTODIO DE OLIV;0000000000     ;5529140255720265;0040000000045406587;NACIONAL;NOVA BELGRAF           ;D; ; ;4789  ; ;360.00; ;360.00;                              ;                                        ;           ;           ;           ;           ;        ;ZZZ SEM C.CUSTO;072292;000000000000000;
06/05/2016;MARCO AURELIO CUSTODIO DE OLIV;0000000000     ;5529140255720265;0040000000045406587;NACIONAL;NOVA BELGRAF           ;D; ; ;4789  ; ;359.10; ;359.10;                              ;                                        ;           ;           ;           ;           ;        ;ZZZ SEM C.CUSTO;087442;000000000000000;
23/05/2016;MARCO AURELIO CUSTODIO DE OLIV;0000000000     ;5529140255720265;0040000000045406587;NACIONAL;COPIA IMPRESSA LTDA ME ;D; ; ;5732  ; ;360.00; ;360.00;                              ;                                        ;           ;           ;           ;           ;        ;ZZZ SEM C.CUSTO;089902;000000000000000;
24/05/2016;MARCO AURELIO CUSTODIO DE OLIV;0000000000     ;5529140255720265;0040000000045406587;NACIONAL;MICHELUCCIO PIZZAS     ;D; ; ;5812  ; ;360.00; ;360.00;                              ;                                        ;           ;           ;           ;           ;        ;ZZZ SEM C.CUSTO;038433;000000000000000;
25/05/2016;MARCO AURELIO CUSTODIO DE OLIV;0000000000     ;5529140255720265;0040000000045406587;NACIONAL;SABINA                 ;D; ; ;5462  ; ;360.00; ;360.00;                              ;                                        ;           ;           ;           ;           ;        ;ZZZ SEM C.CUSTO;082359;000000000000000;
29/04/2016;VITOR LUIS SVIZERO            ;0000000000     ;5529140255761020;0040000000045406587;NACIONAL;KARINA ANTONELLI SHIRA ;D; ; ;5812  ; ;350.00; ;350.00;                              ;                                        ;           ;           ;           ;           ;        ;ZZZ SEM C.CUSTO;073249;000000000000000;
25/05/2016;VITOR LUIS SVIZERO            ;0000000000     ;5529140255761020;0040000000045406587;NACIONAL;JMR PRANDO BUFFET EIRE ;D; ; ;5811  ; ;354.90; ;354.90;                              ;                                        ;           ;           ;           ;           ;        ;ZZZ SEM C.CUSTO;010642;000000000000000;
11/05/2016;ALESSANDRO DO CARMO PEREIRA   ;0000000000     ;5529140256049557;0040000000045406587;NACIONAL;MARQUES PLAZA HOTEL    ;D; ; ;7011  ; ;1470.37; ;1470.37;                              ;                                        ;           ;           ;           ;           ;        ;ZZZ SEM C.CUSTO;036616;000000000000000;
23/05/2016;KASSIA VANESSA NAVARRO GEROMIN;0000000000     ;5529140258273932;0040000000045406587;NACIONAL;SALGADOS DONA ELZIRA   ;D; ; ;5441  ; ;356.00; ;356.00;                              ;                                        ;           ;           ;           ;           ;        ;ZZZ SEM C.CUSTO;027184;000000000000000;
24/05/2016;NILTON RICARDO DE SA CREVELARO;0000000000     ;5529140258529598;0040000000045406587;NACIONAL;SABOR CAMPESTRE        ;D; ; ;5812  ; ;300.00; ;300.00;                              ;                                        ;           ;           ;           ;           ;        ;ZZZ SEM C.CUSTO;006869;000000000000000;
25/05/2016;JEANDRY CARLOS VALLE          ;40986          ;5529140259442171;0040000000045406587;NACIONAL;COMERCIAL SUZANO LTDA  ;D; ; ;5411  ; ;600.00; ;600.00;                              ;                                        ;           ;           ;           ;           ;        ;ZZZ SEM C.CUSTO;022975;000000000000000;
23/05/2016;ANDRE PEDRO R CUNHA VASCONCELL;43953          ;5529140259798275;0040000000045406587;NACIONAL;RODRIGUES SINALIZACAO  ;D; ; ;5732  ; ;143.00; ;143.00;                              ;                                        ;           ;           ;           ;           ;        ;ZZZ SEM C.CUSTO;048513;000000000000000;
